,date,city,rent,product
0,2021-01-01,Karabük,4,1203
1,2021-01-02,Hakkari,12,1435
2,2021-01-03,Afyon,1,1417
3,2021-01-04,Amasya,2,1714
4,2021-01-05,Ordu,7,1789
5,2021-01-06,Nevşehir,1,1112
6,2021-01-07,Gaziantep,12,1238
7,2021-01-08,Adana,11,1256
8,2021-01-09,Sivas,6,1184
9,2021-01-10,Mardin,11,1804
10,2021-01-11,Bilecik,13,1958
11,2021-01-12,Ankara,17,1927
12,2021-01-13,Tokat,3,1518
13,2021-01-14,Muş,10,1910
14,2021-01-15,Nevşehir,14,1735
15,2021-01-16,Bitlis,14,1292
16,2021-01-17,Adana,4,1604
17,2021-01-18,Ağrı,3,1012
18,2021-01-19,Mardin,10,1349
19,2021-01-20,Siirt,2,1353
20,2021-01-21,Malatya,9,1373
21,2021-01-22,Gümüşhane,4,1230
22,2021-01-23,Batman,12,1222
23,2021-01-24,Sivas,10,1382
24,2021-01-25,Erzurum,2,1100
25,2021-01-26,Kars,7,1830
26,2021-01-27,Uşak,9,1062
27,2021-01-28,Aydın,14,1168
28,2021-01-29,Afyon,16,1508
29,2021-01-30,Afyon,5,1549
30,2021-01-31,Bingöl,6,1217
31,2021-02-01,İzmir,10,1799
32,2021-02-02,Van,16,1439
33,2021-02-03,Diyarbakır,5,1250
34,2021-02-04,Düzce,17,1594
35,2021-02-05,Amasya,15,1314
36,2021-02-06,Karabük,1,1748
37,2021-02-07,Zonguldak,6,1879
38,2021-02-08,Yalova,16,1873
39,2021-02-09,Bilecik,6,1019
40,2021-02-10,Tekirdağ,16,1883
41,2021-02-11,Çanakkale,11,1120
42,2021-02-12,Gaziantep,4,1585
43,2021-02-13,Uşak,9,1708
44,2021-02-14,Burdur,7,1424
45,2021-02-15,Sivas,11,1687
46,2021-02-16,Van,9,1746
47,2021-02-17,Bursa,2,1324
48,2021-02-18,Erzincan,16,1307
49,2021-02-19,Erzincan,13,1354
50,2021-02-20,Ağrı,11,1726
51,2021-02-21,Burdur,5,1779
52,2021-02-22,Çankırı,8,1279
53,2021-02-23,Giresun,14,1884
54,2021-02-24,Erzurum,13,1637
55,2021-02-25,İstanbul,5,1295
56,2021-02-26,Kocaeli,13,1446
57,2021-02-27,Muş,13,1777
58,2021-02-28,Çankırı,6,1624
59,2021-03-01,Bilecik,1,1446
60,2021-03-02,Kırşehir,15,1035
61,2021-03-03,Bingöl,9,1774
62,2021-03-04,Düzce,8,1355
63,2021-03-05,Tunceli,10,1871
64,2021-03-06,Tokat,5,1631
65,2021-03-07,Bitlis,11,1727
66,2021-03-08,Yalova,14,1874
67,2021-03-09,Bartın,10,1292
68,2021-03-10,Manisa,1,1668
69,2021-03-11,Bilecik,13,1199
70,2021-03-12,Ankara,13,1177
71,2021-03-13,Manisa,15,1314
72,2021-03-14,Rize,11,1558
73,2021-03-15,Bitlis,9,1438
74,2021-03-16,Yozgat,2,1635
75,2021-03-17,Osmaniye,4,1861
76,2021-03-18,Edirne,15,1481
77,2021-03-19,Çankırı,3,1419
78,2021-03-20,Erzurum,3,1731
79,2021-03-21,Kütahya,17,1622
80,2021-03-22,Isparta,7,1748
81,2021-03-23,Burdur,7,1083
82,2021-03-24,Samsun,6,1041
83,2021-03-25,Osmaniye,10,1063
84,2021-03-26,Ordu,1,1952
85,2021-03-27,Siirt,4,1078
86,2021-03-28,Erzincan,9,1017
87,2021-03-29,Ankara,9,1866
88,2021-03-30,Adıyaman,1,1754
89,2021-03-31,Amasya,8,1700
90,2021-04-01,Karaman,7,1012
91,2021-04-02,Malatya,16,1981
92,2021-04-03,Çanakkale,9,1833
93,2021-04-04,Çankırı,16,1813
94,2021-04-05,Balıkesir,13,1886
95,2021-04-06,Kocaeli,15,1893
96,2021-04-07,Manisa,1,1253
97,2021-04-08,Kocaeli,3,1085
98,2021-04-09,Erzincan,2,1880
99,2021-04-10,Karabük,13,1229
100,2021-04-11,Bolu,14,1361
101,2021-04-12,Balıkesir,16,1718
102,2021-04-13,Kırklareli,7,1556
103,2021-04-14,Malatya,16,1667
104,2021-04-15,Nevşehir,16,1533
105,2021-04-16,Bitlis,12,1585
106,2021-04-17,Kars,3,1502
107,2021-04-18,Ardahan,5,1615
108,2021-04-19,Tokat,16,1677
109,2021-04-20,Gümüşhane,11,1838
110,2021-04-21,Zonguldak,17,1895
111,2021-04-22,Şanlıurfa,6,1472
112,2021-04-23,Ardahan,3,1716
113,2021-04-24,Artvin,1,1062
114,2021-04-25,Afyon,16,1980
115,2021-04-26,Samsun,15,1978
116,2021-04-27,Antalya,17,1238
117,2021-04-28,Kırıkkale,2,1831
118,2021-04-29,Antalya,14,1522
119,2021-04-30,Bilecik,15,1861
120,2021-05-01,Denizli,17,1138
121,2021-05-02,Niğde,17,1030
122,2021-05-03,Kars,6,1170
123,2021-05-04,Antalya,4,1397
124,2021-05-05,Karaman,3,1918
125,2021-05-06,Hakkari,4,1455
126,2021-05-07,Afyon,6,1829
127,2021-05-08,Batman,13,1731
128,2021-05-09,Isparta,5,1379
129,2021-05-10,Hakkari,11,1673
130,2021-05-11,Manisa,17,1980
131,2021-05-12,Çankırı,14,1988
132,2021-05-13,Bingöl,6,1772
133,2021-05-14,Bayburt,3,1928
134,2021-05-15,Amasya,10,1487
135,2021-05-16,Kars,16,1594
136,2021-05-17,Kırklareli,15,1123
137,2021-05-18,Ordu,1,1402
138,2021-05-19,Yozgat,17,1524
139,2021-05-20,Siirt,7,1729
140,2021-05-21,Antalya,17,1778
141,2021-05-22,Gaziantep,11,1886
142,2021-05-23,Kütahya,5,1326
143,2021-05-24,Bilecik,17,1069
144,2021-05-25,Antalya,17,1101
145,2021-05-26,Erzincan,5,1306
146,2021-05-27,Afyon,6,1277
147,2021-05-28,Kütahya,17,1543
148,2021-05-29,Malatya,15,1333
149,2021-05-30,Muğla,10,1712
150,2021-05-31,Artvin,1,1057
151,2021-06-01,Tekirdağ,15,1148
152,2021-06-02,Bayburt,10,1967
153,2021-06-03,Muş,11,1058
154,2021-06-04,Burdur,14,1863
155,2021-06-05,Balıkesir,4,1367
156,2021-06-06,Kars,6,1366
157,2021-06-07,Bartın,12,1980
158,2021-06-08,Kahramanmaraş,14,1962
159,2021-06-09,Antalya,8,1820
160,2021-06-10,Eskişehir,14,1645
161,2021-06-11,Gümüşhane,6,1429
162,2021-06-12,Gaziantep,15,1976
163,2021-06-13,Aksaray,12,1541
164,2021-06-14,Sinop,14,1708
165,2021-06-15,Ağrı,16,1253
166,2021-06-16,Kilis,5,1712
167,2021-06-17,Van,5,1798
168,2021-06-18,Afyon,13,1014
169,2021-06-19,Uşak,3,1940
170,2021-06-20,Isparta,6,1489
171,2021-06-21,Bitlis,4,1075
172,2021-06-22,Nevşehir,12,1790
173,2021-06-23,Ardahan,16,1253
174,2021-06-24,Erzincan,5,1592
175,2021-06-25,Kırıkkale,3,1977
176,2021-06-26,Sakarya,16,1720
177,2021-06-27,Adana,10,1128
178,2021-06-28,Kocaeli,3,1274
179,2021-06-29,Kırklareli,10,1464
180,2021-06-30,Bingöl,12,1703
181,2021-07-01,Bartın,11,1237
182,2021-07-02,Kayseri,16,1169
183,2021-07-03,Elazığ,2,1742
184,2021-07-04,Kars,5,1913
185,2021-07-05,Yalova,11,1805
186,2021-07-06,Bitlis,7,1386
187,2021-07-07,Karabük,10,1700
188,2021-07-08,Artvin,2,1200
189,2021-07-09,Kahramanmaraş,8,1020
190,2021-07-10,Bursa,7,1748
191,2021-07-11,Ordu,17,1353
192,2021-07-12,Afyon,6,1839
193,2021-07-13,İstanbul,6,1563
194,2021-07-14,Bayburt,17,1218
195,2021-07-15,Yozgat,3,1233
196,2021-07-16,Yozgat,13,1855
197,2021-07-17,Tunceli,3,1636
198,2021-07-18,Kırşehir,3,1780
199,2021-07-19,Bursa,9,1814
200,2021-07-20,Isparta,11,1380
201,2021-07-21,İstanbul,9,1696
202,2021-07-22,Ağrı,14,1574
203,2021-07-23,Muğla,10,1609
204,2021-07-24,Tekirdağ,9,1440
205,2021-07-25,Şanlıurfa,10,1703
206,2021-07-26,Samsun,9,1055
207,2021-07-27,Konya,2,1443
208,2021-07-28,Bursa,3,1390
209,2021-07-29,Adana,12,1318
210,2021-07-30,Düzce,2,1434
211,2021-07-31,İstanbul,16,1777
212,2021-08-01,Bolu,15,1753
213,2021-08-02,Kastamonu,9,1857
214,2021-08-03,Muş,5,1842
215,2021-08-04,Burdur,15,1398
216,2021-08-05,İçel (Mersin),5,1358
217,2021-08-06,Tokat,2,1665
218,2021-08-07,Muş,7,1894
219,2021-08-08,Eskişehir,16,1230
220,2021-08-09,Ardahan,7,1784
221,2021-08-10,Kilis,1,1516
222,2021-08-11,Çorum,8,1631
223,2021-08-12,Isparta,12,1975
224,2021-08-13,Şırnak,4,1301
225,2021-08-14,Uşak,12,1954
226,2021-08-15,Ankara,15,1389
227,2021-08-16,Erzincan,5,1239
228,2021-08-17,Aydın,16,1785
229,2021-08-18,Edirne,9,1486
230,2021-08-19,Samsun,5,1751
231,2021-08-20,Kahramanmaraş,1,1616
232,2021-08-21,Isparta,2,1619
233,2021-08-22,Bilecik,13,1685
234,2021-08-23,Karaman,2,1418
235,2021-08-24,Erzurum,17,1601
236,2021-08-25,Gaziantep,8,1968
237,2021-08-26,Edirne,10,1037
238,2021-08-27,Tekirdağ,10,1263
239,2021-08-28,Malatya,10,1196
240,2021-08-29,Ankara,1,1089
241,2021-08-30,Muş,14,1536
242,2021-08-31,İçel (Mersin),5,1184
243,2021-09-01,Kilis,2,1556
244,2021-09-02,Uşak,15,1014
245,2021-09-03,Erzincan,15,1578
246,2021-09-04,Çanakkale,7,1235
247,2021-09-05,Bingöl,10,1207
248,2021-09-06,Eskişehir,10,1066
249,2021-09-07,Antalya,14,1474
250,2021-09-08,Kocaeli,1,1209
251,2021-09-09,İçel (Mersin),13,1979
252,2021-09-10,Gümüşhane,8,1813
253,2021-09-11,Erzurum,5,1721
254,2021-09-12,Tekirdağ,3,1653
255,2021-09-13,Çankırı,2,1764
256,2021-09-14,Bayburt,4,1330
257,2021-09-15,Sinop,14,1828
258,2021-09-16,Batman,5,1983
259,2021-09-17,Hatay,7,1098
260,2021-09-18,Artvin,13,1550
261,2021-09-19,Bolu,11,1867
262,2021-09-20,İzmir,1,1635
263,2021-09-21,Hatay,15,1469
264,2021-09-22,Tokat,1,1746
265,2021-09-23,Nevşehir,8,1937
266,2021-09-24,Uşak,5,1782
267,2021-09-25,Tunceli,11,1979
268,2021-09-26,Nevşehir,11,1425
269,2021-09-27,Zonguldak,8,1507
270,2021-09-28,Çanakkale,5,1416
271,2021-09-29,Tunceli,15,1354
272,2021-09-30,Diyarbakır,8,1421
273,2021-10-01,Tokat,11,1140
274,2021-10-02,Sinop,8,1645
275,2021-10-03,Van,3,1882
276,2021-10-04,Karaman,5,1403
277,2021-10-05,Erzurum,12,1348
278,2021-10-06,Çorum,16,1534
279,2021-10-07,Şırnak,13,1115
280,2021-10-08,Kırıkkale,6,1512
281,2021-10-09,Diyarbakır,2,1849
282,2021-10-10,Kars,10,1055
283,2021-10-11,Balıkesir,6,1896
284,2021-10-12,Kırşehir,5,1878
285,2021-10-13,Samsun,3,1023
286,2021-10-14,Yalova,14,1736
287,2021-10-15,Bursa,13,1892
288,2021-10-16,Kırıkkale,4,1599
289,2021-10-17,Şırnak,7,1254
290,2021-10-18,Hatay,10,1593
291,2021-10-19,Bitlis,5,1517
292,2021-10-20,Kars,6,1655
293,2021-10-21,Tokat,7,1042
294,2021-10-22,Diyarbakır,8,1521
295,2021-10-23,Bolu,3,1476
296,2021-10-24,Kırıkkale,8,1601
297,2021-10-25,Bitlis,16,1764
298,2021-10-26,Kütahya,12,1682
299,2021-10-27,Düzce,5,1977
300,2021-10-28,Hatay,2,1196
301,2021-10-29,Afyon,6,1239
302,2021-10-30,Aksaray,10,1873
303,2021-10-31,Giresun,4,1389
304,2021-11-01,Siirt,5,1332
305,2021-11-02,Karabük,11,1838
306,2021-11-03,Sakarya,7,1096
307,2021-11-04,Mardin,6,1757
308,2021-11-05,Trabzon,1,1477
309,2021-11-06,Kocaeli,15,1781
310,2021-11-07,Yalova,12,1642
311,2021-11-08,Sivas,11,1293
312,2021-11-09,Amasya,3,1548
313,2021-11-10,Karaman,2,1283
314,2021-11-11,Erzincan,12,1186
315,2021-11-12,Kocaeli,1,1095
316,2021-11-13,Yozgat,11,1409
317,2021-11-14,Zonguldak,17,1167
318,2021-11-15,Kocaeli,14,1892
319,2021-11-16,Sivas,10,1387
320,2021-11-17,Elazığ,1,1892
321,2021-11-18,İzmir,14,1635
322,2021-11-19,Siirt,10,1386
323,2021-11-20,Mardin,3,1812
324,2021-11-21,Tokat,15,1282
325,2021-11-22,Nevşehir,8,1803
326,2021-11-23,Manisa,13,1982
327,2021-11-24,Tekirdağ,12,1785
328,2021-11-25,Afyon,6,1700
329,2021-11-26,Karabük,14,1441
330,2021-11-27,Erzurum,15,1126
331,2021-11-28,Batman,5,1463
332,2021-11-29,Karaman,9,1241
333,2021-11-30,Erzincan,2,1585
334,2021-12-01,Edirne,1,1401
335,2021-12-02,Muş,10,1611
336,2021-12-03,Denizli,1,1328
337,2021-12-04,Sivas,17,1733
338,2021-12-05,Trabzon,8,1459
339,2021-12-06,Denizli,13,1925
340,2021-12-07,Düzce,17,1974
341,2021-12-08,Bolu,8,1580
342,2021-12-09,Bingöl,7,1239
343,2021-12-10,Bartın,6,1161
344,2021-12-11,Gaziantep,16,1674
345,2021-12-12,Sinop,7,1447
346,2021-12-13,Diyarbakır,3,1763
347,2021-12-14,Yozgat,15,1005
348,2021-12-15,Isparta,10,1735
349,2021-12-16,Ağrı,16,1034
350,2021-12-17,Bingöl,8,1981
351,2021-12-18,Elazığ,7,1499
352,2021-12-19,Isparta,5,1879
353,2021-12-20,Muş,4,1462
354,2021-12-21,Çankırı,5,1872
355,2021-12-22,Osmaniye,8,1324
356,2021-12-23,Tokat,10,1743
357,2021-12-24,Denizli,15,1090
358,2021-12-25,Kırşehir,13,1411
359,2021-12-26,Bolu,15,1424
360,2021-12-27,Bitlis,12,1567
361,2021-12-28,Gümüşhane,8,1528
362,2021-12-29,Konya,17,1686
363,2021-12-30,Manisa,15,1742
